<?xml version="1.0" encoding="UTF-8" standalone="no"?>
<!-- Created with Inkscape (http://www.inkscape.org/) -->

<svg
   xmlns:dc="http://purl.org/dc/elements/1.1/"
   xmlns:cc="http://creativecommons.org/ns#"
   xmlns:rdf="http://www.w3.org/1999/02/22-rdf-syntax-ns#"
   xmlns:svg="http://www.w3.org/2000/svg"
   xmlns="http://www.w3.org/2000/svg"
   xmlns:sodipodi="http://sodipodi.sourceforge.net/DTD/sodipodi-0.dtd"
   xmlns:inkscape="http://www.inkscape.org/namespaces/inkscape"
   version="1.1"
   id="svg190"
   xml:space="preserve"
   width="512"
   height="512"
   viewBox="0 0 512 512"
   sodipodi:docname="icon.svg"
   inkscape:version="0.92.4 (unknown)"><metadata
     id="metadata196"><rdf:RDF><cc:Work
         rdf:about=""><dc:format>image/svg+xml</dc:format><dc:type
           rdf:resource="http://purl.org/dc/dcmitype/StillImage" /><dc:title /></cc:Work></rdf:RDF></metadata><defs
     id="defs194"><clipPath
       clipPathUnits="userSpaceOnUse"
       id="clipPath208"><path
         d="M 0,0 H 138 V 139 H 0 Z"
         id="path206"
         inkscape:connector-curvature="0" /></clipPath><clipPath
       clipPathUnits="userSpaceOnUse"
       id="clipPath212"><path
         d="M -306,254 H 444 V -1080 H -306 Z"
         id="path210"
         inkscape:connector-curvature="0"
         style="clip-rule:evenodd" /></clipPath><clipPath
       clipPathUnits="userSpaceOnUse"
       id="clipPath216"><path
         d="m 25.67427,9.015628 2.47459,-7.767814 c 0.15369,-0.483907 0.50182,-0.8792559 0.966,-1.088 0.23209,-0.10753493 0.483,-0.15813958 0.73705,-0.15813958 0.23836,0 0.47986,0.05060465 0.70568,0.14865118 L 38.00332,3.398512 36.57941,6.687814 30.94964,4.230326 29.07723,10.10995 Z"
         id="path214"
         inkscape:connector-curvature="0"
         style="clip-rule:evenodd" /></clipPath><clipPath
       clipPathUnits="userSpaceOnUse"
       id="clipPath220"><path
         d="M 0,0 H 138 V 139 H 0 Z"
         id="path218"
         inkscape:connector-curvature="0" /></clipPath><clipPath
       clipPathUnits="userSpaceOnUse"
       id="clipPath224"><path
         d="M 25,0 H 38 V 11 H 25 Z"
         id="path222"
         inkscape:connector-curvature="0" /></clipPath><clipPath
       clipPathUnits="userSpaceOnUse"
       id="clipPath228"><path
         d="M 38.00332,10.10995 V 0.00167442 l -12.32905,5.4e-7 V 10.10995 Z"
         id="path226"
         inkscape:connector-curvature="0"
         style="clip-rule:evenodd" /></clipPath><linearGradient
       x1="512.10419"
       y1="-13054.61"
       x2="512.1037"
       y2="1024.2"
       gradientUnits="userSpaceOnUse"
       gradientTransform="matrix(1,0,0,-1,25.67427,10.10995)"
       spreadMethod="pad"
       id="linearGradient238"><stop
         style="stop-opacity:1;stop-color:#9adaf4"
         offset="0"
         id="stop234" /><stop
         style="stop-opacity:1;stop-color:#c1dff4"
         offset="1"
         id="stop236" /></linearGradient><clipPath
       clipPathUnits="userSpaceOnUse"
       id="clipPath242"><path
         d="M 38.00332,10.10995 V 0.00167442 l -12.32905,5.4e-7 V 10.10995 Z"
         id="path240"
         inkscape:connector-curvature="0"
         style="clip-rule:evenodd" /></clipPath><linearGradient
       x1="6.1657782"
       y1="-128.8669"
       x2="6.165772"
       y2="10.11025"
       gradientUnits="userSpaceOnUse"
       gradientTransform="matrix(1,0,0,-1,25.67427,10.10995)"
       spreadMethod="pad"
       id="linearGradient252"><stop
         style="stop-opacity:1;stop-color:#9adaf4"
         offset="0"
         id="stop248" /><stop
         style="stop-opacity:1;stop-color:#c1dff4"
         offset="1"
         id="stop250" /></linearGradient><clipPath
       clipPathUnits="userSpaceOnUse"
       id="clipPath256"><path
         d="M -306,254 H 444 V -1080 H -306 Z"
         id="path254"
         inkscape:connector-curvature="0"
         style="clip-rule:evenodd" /></clipPath><clipPath
       clipPathUnits="userSpaceOnUse"
       id="clipPath260"><path
         d="m 59.28982,138.3643 0.46418,-3.5582 c 5.13736,0.68 10.46605,0.7876 15.63477,0.3163 l 0.32618,3.574 C 73.49441,138.8988 71.24564,139 68.99373,139 c -3.25241,0 -6.51423,-0.2119 -9.70391,-0.6357 z m 22.30268,-4.0927 c 5.16245,-0.9456 10.19005,-2.4796 14.95732,-4.5576 l 1.41763,3.2925 c -5.01504,2.1887 -10.30922,3.8017 -15.72886,4.7948 z m -44.31055,-2.5144 1.55878,-3.226 c 4.67318,2.2803 9.63491,4.0199 14.75032,5.1743 l -0.78723,3.5044 c -5.37887,-1.2177 -10.60091,-3.0521 -15.52187,-5.4527 z m 64.88505,-4.8138 c 4.5948,-2.5428 8.8634,-5.6171 12.6772,-9.1373 l 2.415,2.6473 c -4.0239,3.7099 -8.5277,6.9518 -13.3734,9.6307 z m -83.62795,-8.5648 2.53104,-2.5334 c 3.65386,3.6815 7.78446,6.9423 12.27573,9.6813 l -1.85359,3.0679 c -4.73278,-2.8908 -9.09232,-6.3256 -12.95318,-10.2158 z m 100.69925,-5.0383 c 3.5033,-3.9409 6.4734,-8.277 8.8257,-12.8916 l 3.174,1.6415 c -2.4871,4.8834 -5.6298,9.4758 -9.3401,13.6411 z M 5.410227,99.38605 8.662636,97.9027 c 2.129594,4.7189 4.895864,9.1879 8.214134,13.2806 l -2.76313,2.274 c -3.519,-4.3362 -6.448367,-9.0677 -8.703413,-14.07125 z M 130.6076,94.73042 c 1.8661,-4.88968 3.0674,-10.00391 3.566,-15.20354 l 3.5504,0.34475 c -0.5238,5.51907 -1.8003,10.95274 -3.7856,16.14921 z M 0.01254545,76.88279 3.575455,76.71516 c 0.247772,5.22493 1.194954,10.38977 2.81959,15.35535 L 3.004636,93.1933 C 1.2765,87.92093 0.2665909,82.43033 0.01254545,76.88279 Z M 132.1475,57.82698 l 3.4281,-1.00261 c 1.5399,5.32298 2.3585,10.84205 2.4244,16.4054 l -3.5692,0.04428 C 134.3681,68.0333 133.5997,62.84 132.1475,57.82698 Z M 0,70.28205 C 0.1881818,64.19367 0.8562273,58.83907 2.032364,53.92093 l 3.471954,0.83814 C 4.384636,59.44 3.751091,64.5574 3.569182,70.39591 Z m 122.3182,-31.91256 2.8353,-2.17284 c 3.3778,4.44372 6.1441,9.27647 8.2329,14.35591 l -3.2994,1.36316 c -1.9697,-4.78846 -4.5791,-9.34605 -7.7688,-13.54623 z M 3.942409,47.53842 C 5.934,42.09526 8.637545,37.3574 12.21614,33.07814 l 2.73491,2.30251 C 11.64218,39.34679 9.136227,43.72409 7.295182,48.77507 Z M 106.3165,23.52019 108.261,20.51237 c 4.6481,3.03312 8.8947,6.60391 12.6301,10.61749 l -2.6063,2.45116 C 114.747,29.78251 110.723,26.40149 106.3165,23.52019 Z m -89.47736,4.73469 c 1.16045,-1.06269 2.39931,-2.09693 3.69463,-3.08055 l 3.13637,-9.86159 3.39981,1.09749 -3.312,10.40242 c -0.1129,0.3574 -0.33559,0.67051 -0.63354,0.89507 -1.36746,1.02158 -2.67532,2.09693 -3.88596,3.20391 z m 69.48613,-13.52093 0.88446,-3.4759 c 5.34436,1.37265 10.50682,3.36204 15.35877,5.90493 l -1.6529,3.18493 C 96.30832,17.92521 91.40305,16.03702 86.32527,14.73395 Z M 53.80432,14.20893 42.47577,9.265488 43.89968,5.96986 54.648,10.6666 c 1.21691,-0.33525 2.20173,-0.58827 3.0705,-0.784367 l 0.79036,3.501207 c -0.95345,0.21823 -2.07,0.50289 -3.519,0.90772 -0.15681,0.04428 -0.31677,0.06642 -0.47672,0.06642 -0.2415,0 -0.483,-0.0506 -0.70882,-0.14865 z m 15.17059,-1.6573 c -1.83791,0 -3.22105,0.0095 -4.44109,0.05377 L 64.40209,9.015628 c 1.2765,-0.044279 2.69727,-0.053768 4.57282,-0.053768 3.95495,0 7.92245,0.319442 11.78959,0.942512 L 80.19368,13.45302 C 76.51473,12.85209 72.73855,12.55163 68.97491,12.55163 Z"
         id="path258"
         inkscape:connector-curvature="0"
         style="clip-rule:evenodd" /></clipPath><clipPath
       clipPathUnits="userSpaceOnUse"
       id="clipPath264"><path
         d="M 0,0 H 138 V 139 H 0 Z"
         id="path262"
         inkscape:connector-curvature="0" /></clipPath><clipPath
       clipPathUnits="userSpaceOnUse"
       id="clipPath268"><path
         d="M 0,5 H 138 V 139 H 0 Z"
         id="path266"
         inkscape:connector-curvature="0" /></clipPath><clipPath
       clipPathUnits="userSpaceOnUse"
       id="clipPath272"><path
         d="M 138,139 V 5.969858 L -5.70307e-6,5.969864 0,139 Z"
         id="path270"
         inkscape:connector-curvature="0"
         style="clip-rule:evenodd" /></clipPath><linearGradient
       x1="511.9884"
       y1="2.3908709e-05"
       x2="511.98831"
       y2="1069.969"
       gradientUnits="userSpaceOnUse"
       gradientTransform="matrix(1,0,0,-1,-5.70307e-6,139)"
       spreadMethod="pad"
       id="linearGradient282"><stop
         style="stop-opacity:1;stop-color:#9adaf4"
         offset="0"
         id="stop278" /><stop
         style="stop-opacity:1;stop-color:#c1dff4"
         offset="1"
         id="stop280" /></linearGradient><clipPath
       clipPathUnits="userSpaceOnUse"
       id="clipPath286"><path
         d="M 138,139 V 5.969858 L -5.70307e-6,5.969864 0,139 Z"
         id="path284"
         inkscape:connector-curvature="0"
         style="clip-rule:evenodd" /></clipPath><linearGradient
       x1="68.998444"
       y1="3.106034e-06"
       x2="68.998428"
       y2="139.00211"
       gradientUnits="userSpaceOnUse"
       gradientTransform="matrix(1,0,0,-1,-5.70307e-6,139)"
       spreadMethod="pad"
       id="linearGradient296"><stop
         style="stop-opacity:1;stop-color:#9adaf4"
         offset="0"
         id="stop292" /><stop
         style="stop-opacity:1;stop-color:#c1dff4"
         offset="1"
         id="stop294" /></linearGradient><clipPath
       clipPathUnits="userSpaceOnUse"
       id="clipPath300"><path
         d="M -306,254 H 444 V -1080 H -306 Z"
         id="path298"
         inkscape:connector-curvature="0"
         style="clip-rule:evenodd" /></clipPath><clipPath
       clipPathUnits="userSpaceOnUse"
       id="clipPath304"><path
         d="m 36.9029,15.91929 c -0.28541,0 -0.57082,0.06958 -0.83114,0.20875 -0.54259,0.28781 -0.90014,0.83181 -0.94718,1.44856 l -1.37373,17.74641 c -5.82423,4.4374 -10.35314,10.16205 -13.46755,17.03163 -3.07363,6.76837 -4.6324,14.32428 -4.6324,22.44316 0,27.7219 24.38209,50.2789 54.35004,50.2789 29.96482,0 54.35006,-22.557 54.35006,-50.2789 0,-27.72502 -24.38524,-50.28204 -54.35006,-50.28204 -4.98368,0 -9.91718,0.62307 -14.68132,1.85972 L 37.7999,16.16283 c -0.27914,-0.1613 -0.5865,-0.24354 -0.897,-0.24354"
         id="path302"
         inkscape:connector-curvature="0"
         style="clip-rule:evenodd" /></clipPath><clipPath
       clipPathUnits="userSpaceOnUse"
       id="clipPath308"><path
         d="M 0,0 H 138 V 139 H 0 Z"
         id="path306"
         inkscape:connector-curvature="0" /></clipPath></defs><sodipodi:namedview
     pagecolor="#ffffff"
     bordercolor="#666666"
     borderopacity="1"
     objecttolerance="10"
     gridtolerance="10"
     guidetolerance="10"
     inkscape:pageopacity="0"
     inkscape:pageshadow="2"
     inkscape:window-width="1920"
     inkscape:window-height="1016"
     id="namedview192"
     showgrid="false"
     inkscape:zoom="0.90041658"
     inkscape:cx="437.02803"
     inkscape:cy="404.57771"
     inkscape:current-layer="g198"
     inkscape:window-x="0"
     inkscape:window-y="27"
     inkscape:window-maximized="1" /><g
     id="g198"
     inkscape:groupmode="layer"
     inkscape:label="logoSignal(1)"
     transform="matrix(1.3333333,0,0,-1.3333333,0,512)"><rect
       style="opacity:1;vector-effect:none;fill:#2090ea;fill-opacity:0.95320195;stroke:none;stroke-width:5.30330181;stroke-linecap:round;stroke-linejoin:miter;stroke-miterlimit:4;stroke-dasharray:none;stroke-dashoffset:9.07086658;stroke-opacity:1;paint-order:normal"
       id="rect904"
       width="384"
       height="384"
       x="0"
       y="-384"
       transform="scale(1,-1)" /><g
       id="g200" /><g
       id="g204" /><g
       clip-path="url(#clipPath208)"
       id="g394"
       transform="matrix(2.1582994,0,0,2.1582994,42.000001,41.996387)"><g
         id="g310" /><g
         id="g346"><g
           clip-path="url(#clipPath212)"
           id="g344"><g
             clip-path="url(#clipPath216)"
             id="g342"><g
               clip-path="url(#clipPath220)"
               id="g340"><g
                 id="g312" /><g
                 id="g338"><g
                   clip-path="url(#clipPath224)"
                   id="g336"><g
                     id="g314" /><g
                     id="g324"><g
                       clip-path="url(#clipPath228)"
                       id="g322"><g
                         id="g320"><g
                           id="g318"><path
                             d="M 25.67427,0.00167442 H 38.00332 V 10.109954 H 25.67427 Z"
                             style="fill:url(#linearGradient238);stroke:none"
                             id="path316"
                             inkscape:connector-curvature="0" /></g></g></g></g><g
                     id="g334"><g
                       clip-path="url(#clipPath242)"
                       id="g332"><g
                         id="g330"><g
                           id="g328"><path
                             d="M 25,0 H 39 V 11 H 25 Z"
                             style="fill:url(#linearGradient252);stroke:none"
                             id="path326"
                             inkscape:connector-curvature="0" /></g></g></g></g></g></g></g></g></g></g><g
         id="g382"><g
           clip-path="url(#clipPath256)"
           id="g380"><g
             clip-path="url(#clipPath260)"
             id="g378"><g
               clip-path="url(#clipPath264)"
               id="g376"><g
                 id="g348" /><g
                 id="g374"><g
                   clip-path="url(#clipPath268)"
                   id="g372"><g
                     id="g350" /><g
                     id="g360"><g
                       clip-path="url(#clipPath272)"
                       id="g358"><g
                         id="g356"><g
                           id="g354"><path
                             d="M 0,5.969858 H 138 V 138.99996 H 0 Z"
                             style="fill:url(#linearGradient282);stroke:none"
                             id="path352"
                             inkscape:connector-curvature="0" /></g></g></g></g><g
                     id="g370"><g
                       clip-path="url(#clipPath286)"
                       id="g368"><g
                         id="g366"><g
                           id="g364"><path
                             d="M 0,5 H 138 V 139 H 0 Z"
                             style="fill:url(#linearGradient296);stroke:none"
                             id="path362"
                             inkscape:connector-curvature="0" /></g></g></g></g></g></g></g></g></g></g><g
         id="g392"><g
           clip-path="url(#clipPath300)"
           id="g390"><g
             clip-path="url(#clipPath304)"
             id="g388"><g
               clip-path="url(#clipPath308)"
               id="g386"><path
                 d="M 10.6509,130.0767 H 129.351 V 10.91929 H 10.6509 Z"
                 style="fill:#f2f2f2;fill-opacity:1;fill-rule:nonzero;stroke:none"
                 id="path384"
                 inkscape:connector-curvature="0" /></g></g></g></g></g></g></svg>